{
	"title": "Coming Soon: MicroBlocks 2.0!",
	"author": "John Maloney",
	"author-link": "https://microblocks.fun/about",
	"organization": "MicroBlocks",
	"organization-link": "https://microblocks.fun",
	"last-update": "2024-10-08"
}
