{
	"title": "Using MicroBlocks with MIT App Inventor",
	"author": "John Maloney",
	"author-link": "https://microblocks.fun/about",
	"organization": "MicroBlocks",
	"organization-link": "https://microblocks.fun",
	"last-update": "2024-11-09"
}
